{
	"naslov": "Prostor 5",
	"sprat": "Sprat: 1",
	"izdatoPopup": "",
	"izdatoImg": "",
	"povrsina": "Ukupna površina: 372,59 m2",
	"plan_prostor": "img/prostori_osnove/P05.jpg",
	"slika_plan_siri": "img/plan-siri.jpg",
	"slika_plan_parcele": "img/plan_parcele/plan-parcele-05.jpg",
	"slika_prostor": "gallery/HLEB-Enterijer-01-05-09.jpeg",
	"spratnostPopup": "Spratnost: 1",
	"brojProstoraPopup": "Broj prostora: 5"
}