{
	"naslov": "Prostor 4",
	"sprat": "Sprat: 0",
	"izdatoPopup": "",
	"izdatoImg": "",
	"povrsina": "Ukupna površina: 328,87 m2",
	"plan_prostor": "img/prostori_osnove/P04.jpg",
	"slika_plan_siri": "img/plan-siri.jpg",
	"slika_plan_parcele": "img/plan_parcele/plan-parcele-04.jpg",
	"slika_prostor": "gallery/HLEB-Enterijer-04-08-12.jpeg",
	"spratnostPopup": "Spratnost: 0",
	"brojProstoraPopup": "Broj prostora: 4"
}