{
	"naslov": "Prostor 3",
	"sprat": "Sprat: 0",
	"izdatoPopup": "",
	"izdatoImg": "",
	"povrsina": "Ukupna površina: 329,46 m2",
	"plan_prostor": "img/prostori_osnove/P03.jpg",
	"slika_plan_siri": "img/plan-siri.jpg",
	"slika_plan_parcele": "img/plan_parcele/plan-parcele-03.jpg",
	"slika_prostor": "gallery/HLEB-Enterijer-03-07-11.jpeg",
	"spratnostPopup": "Spratnost: 0",
	"brojProstoraPopup": "Broj prostora: 3"
}